<?xml version="1.0" encoding="UTF-8"?>
<svg width="9px" height="15px" viewBox="0 0 9 15" version="1.1" xmlns="http://www.w3.org/2000/svg" xmlns:xlink="http://www.w3.org/1999/xlink">
    <!-- Generator: Sketch 48.2 (47327) - http://www.bohemiancoding.com/sketch -->
    <title>Flèche</title>
    <desc>Created with Sketch.</desc>
    <defs></defs>
    <g id="CTA-Séance/Desktop" stroke="none" stroke-width="1" fill="none" fill-rule="evenodd" transform="translate(-542.000000, -19.000000)" stroke-linecap="round">
        <g id="Flèche" transform="translate(546.500000, 26.500000) rotate(90.000000) translate(-546.500000, -26.500000) translate(540.000000, 23.000000)" stroke="#1B254F" stroke-width="1.3">
            <path d="M0.5,6.5 L6.62354462,0.376455383" id="Line"></path>
            <path d="M6.78,6.5 L12.9,0.376455383" id="Line" transform="translate(9.840000, 3.438228) scale(-1, 1) translate(-9.840000, -3.438228) "></path>
        </g>
    </g>
</svg>