<svg xmlns="http://www.w3.org/2000/svg" width="20" height="26" viewBox="0 0 20 26">
    <g fill="#223C61" fill-rule="evenodd" stroke="#223C61" stroke-width="2" transform="translate(1 1)">
        <path d="M18 20.21c0-3.299-1.764-4.795-4.398-6.37-1.346-.806-.468.28-4.602.28s-3.166-1.112-4.486-.349C1.816 15.331 0 16.863 0 20.211c0 4.985 18 4.985 18 0z"/>
        <ellipse cx="9" cy="5.015" rx="5" ry="5.015"/>
    </g>
</svg>
