<?xml version="1.0" encoding="UTF-8"?>
<svg width="27px" height="27px" viewBox="0 0 27 27" version="1.1" xmlns="http://www.w3.org/2000/svg" xmlns:xlink="http://www.w3.org/1999/xlink">
    <!-- Generator: Sketch 48.2 (47327) - http://www.bohemiancoding.com/sketch -->
    <title>Icons/Loupe Bold@2x</title>
    <desc>Created with Sketch.</desc>
    <defs></defs>
    <g id="Charte" stroke="none" stroke-width="1" fill="none" fill-rule="evenodd" transform="translate(-1090.000000, -1608.000000)" stroke-linecap="round">
        <g id="Icones" transform="translate(118.000000, 1328.000000)" stroke="#223C61" stroke-width="2">
            <g id="Icons/Loupe-Bold" transform="translate(966.000000, 274.000000)">
                <path d="M25.5,25.5 L31.9461787,31.9461787" id="Line" stroke-linejoin="bevel"></path>
                <circle id="Oval-3" cx="17.5953256" cy="17.5953256" r="10.5953256"></circle>
            </g>
        </g>
    </g>
</svg>