<?xml version="1.0" encoding="UTF-8"?>
<svg width="30px" height="28px" viewBox="0 0 30 28" version="1.1" xmlns="http://www.w3.org/2000/svg" xmlns:xlink="http://www.w3.org/1999/xlink">
    <!-- Generator: Sketch 48.2 (47327) - http://www.bohemiancoding.com/sketch -->
    <title>Combined Shape</title>
    <desc>Created with Sketch.</desc>
    <defs></defs>
    <g id="Icons/Favorite-(Active)" stroke="none" stroke-width="1" fill="none" fill-rule="evenodd" transform="translate(-5.000000, -6.000000)">
        <path d="M6.9349145,18.3665874 C6.3378728,17.2888457 6,16.0614131 6,14.759035 C6,10.4738383 9.65780519,7 14.1699366,7 C16.8231266,7 18.811008,8.20111018 19.9986366,10.0620203 C21.1862652,8.20111018 23.1741466,7 25.8273366,7 C30.339468,7 33.9972732,10.4738383 33.9972732,14.759035 C33.9972732,16.1217667 33.62736,17.4024459 32.9776941,18.5154467 C31.2655315,22.1970365 27.095474,26.9767459 20.4675218,32.854575 C20.2011784,33.0907748 19.7999856,33.0894829 19.5351689,32.8515727 L19.5352135,32.851523 C12.8354142,26.8324517 8.63531453,22.0041398 6.9349145,18.3665874 Z" id="Combined-Shape" stroke="#223C61" fill="#223C61"></path>
    </g>
</svg>