<?xml version="1.0" encoding="UTF-8"?>
<svg width="15px" height="15px" viewBox="0 0 15 15" version="1.1" xmlns="http://www.w3.org/2000/svg" xmlns:xlink="http://www.w3.org/1999/xlink">
    <!-- Generator: Sketch 48.2 (47327) - http://www.bohemiancoding.com/sketch -->
    <title>Icons/Clock Mini Copy</title>
    <desc>Created with Sketch.</desc>
    <defs></defs>
    <g id="Symbols" stroke="none" stroke-width="1" fill="none" fill-rule="evenodd">
        <g id="Icons/Clock-Mini-Copy" stroke="#A9B6BC">
            <circle id="Oval-4" cx="7.5" cy="7.5" r="5"></circle>
            <polyline id="Path-6" stroke-linecap="round" points="7.55265656 5.51988419 7.55265656 7.55528028 9.75551905 9.454778"></polyline>
        </g>
    </g>
</svg>