<svg xmlns="http://www.w3.org/2000/svg" width="20" height="20" viewBox="0 0 20 20">
    <g fill="none" fill-rule="evenodd" stroke="#223C61" transform="translate(1 1)">
        <circle cx="9" cy="9" r="9"/>
        <path stroke-linecap="round" d="M9 5.4v3.664l3.965 3.419"/>
    </g>
</svg>
